{
    "tasks": [
        "AndroidSigningV2",
        "AndroidSigningV3",
        "ANTV1",
        "AppCenterDistributeV1",
        "AppCenterDistributeV2",
        "AppCenterDistributeV3",
        "AppCenterTestV1",
        "ArchiveFilesV2",
        "AzureAppServiceManageV0",
        "AzureAppServiceSettingsV1",
        "AzureCLIV1",
        "AzureCLIV2",
        "AzureCloudPowerShellDeploymentV1",
        "AzureFileCopyV2",
        "AzureFileCopyV3",
        "AzureFunctionAppV1",
        "AzureFunctionAppContainerV1",
        "AzureFunctionOnKubernetesV0",
        "AzureFunctionV1",
        "AzureIoTEdgeV2",
        "AzureKeyVaultV1",
        "AzureMonitorAlertsV0",
        "AzureMonitorV0",
        "AzureMonitorV1",
        "AzureMysqlDeploymentV1",
        "AzureNLBManagementV1",
        "AzurePolicyV0",
        "AzurePowerShellV2",
        "AzurePowerShellV3",
        "AzurePowerShellV4",
        "AzureResourceGroupDeploymentV2",
        "AzureResourceManagerTemplateDeploymentV3",
        "AzureRmWebAppDeploymentV3",
        "AzureRmWebAppDeploymentV4",
        "AzureWebAppV1",
        "AzureWebAppContainerV1",
        "AzureVmssDeploymentV0",
        "BashV3",
        "BatchScriptV1",
        "CacheBetaV0",
        "CacheBetaV1",
        "ChefV1",
        "ChefKnifeV1",
        "CMakeV1",
        "CmdLineV2",
        "CocoaPodsV0",
        "CondaEnvironmentV0",
        "CondaEnvironmentV1",
        "ContainerStructureTestV0",
        "ContainerBuildV0",
        "CopyFilesV2",
        "CopyFilesOverSSHV0",
        "CUrlUploaderV2",
        "DecryptFileV1",
        "DelayV1",
        "DeleteFilesV1",
        "DeployVisualStudioTestAgentV2",
        "DockerV0",
        "DockerV1",
        "DockerV2",
        "DockerComposeV0",
        "DockerInstallerV0",
        "DotNetCoreCLIV2",
        "DotNetCoreInstallerV0",
        "DotNetCoreInstallerV1",
        "DownloadBuildArtifactsV0",
        "DownloadFileshareArtifactsV0",
        "DownloadGitHubReleaseV0",
        "DownloadPackageV0",
        "DownloadPackageV1",
        "DownloadPipelineArtifactV0",
        "DownloadPipelineArtifactV1",
        "DownloadPipelineArtifactV2",
        "DownloadSecureFileV1",
        "DuffleInstallerV0",
        "ExtractFilesV1",
        "FileTransformV1",
        "FileTransformV2",
        "FtpUploadV1",
        "FtpUploadV2",
        "FuncToolsInstallerV0",
        "GitHubCommentV0",
        "GitHubReleaseV0",
        "GitHubReleaseV1",
        "GoV0",
        "GoToolV0",
        "GradleV2",
        "GruntV0",
        "GulpV0",
        "GulpV1",
        "HelmDeployV0",
        "HelmInstallerV0",
        "HelmInstallerV1",
        "IISWebAppDeployment",
        "IISWebAppDeploymentOnMachineGroupV0",
        "IISWebAppManagementOnMachineGroupV0",
        "InstallAppleCertificateV2",
        "InstallAppleProvisioningProfileV1",
        "InstallSSHKeyV0",
        "InvokeRestApiV1",
        "JavaToolInstallerV0",
        "JenkinsDownloadArtifactsV1",
        "JenkinsQueueJobV2",
        "KubectlInstallerV0",
        "KubernetesV0",
        "KubernetesV1",
        "KubernetesManifestV0",
        "ManualInterventionV8",
        "MavenAuthenticateV0",
        "MavenV2",
        "MavenV3",
        "MSBuildV1",
        "MysqlDeploymentOnMachineGroupV1",
        "NodeToolV0",
        "NpmV1",
        "NpmAuthenticateV0",
        "NuGetAuthenticateV0",
        "NuGetV0",
        "NuGetCommandV2",
        "NuGetPackagerV0",
        "NuGetPublisherV0",
        "NuGetToolInstallerV0",
        "NuGetToolInstallerV1",
        "OpenPolicyAgentInstallerV0",
        "PackerBuildV0",
        "PackerBuildV1",
        "PipAuthenticateV0",
        "PipAuthenticateV1",
        "PowerShellV2",
        "PowerShellOnTargetMachinesV3",
        "PublishBuildArtifactsV1",
        "PublishCodeCoverageResultsV1",
        "PublishPipelineArtifactV0",
        "PublishPipelineArtifactV1",
        "PublishPipelineMetadataV0",
        "PublishSymbolsV2",
        "PublishTestResultsV1",
        "PublishTestResultsV2",
        "PublishToAzureServiceBusV1",
        "PyPIPublisherV0",
        "PythonScriptV0",
        "QueryWorkItemsV0",
        "QuickPerfTestV1",
        "ReviewAppV0",
        "RunDistributedTestsV1",
        "RunJMeterLoadTestV1",
        "RunLoadTestV1",
        "ServiceFabricComposeDeployV0",
        "ServiceFabricDeployV1",
        "ServiceFabricPowerShellV1",
        "ServiceFabricUpdateManifestsV2",
        "SqlAzureDacpacDeploymentV1",
        "SqlDacpacDeploymentOnMachineGroupV0",
        "SqlServerDacpacDeployment",
        "SshV0",
        "TwineAuthenticateV0",
        "TwineAuthenticateV1",
        "UniversalPackagesV0",
        "UseDotNetV2",
        "UseNodeV1",
        "UsePythonVersionV0",
        "UseRubyVersionV0",
        "VSBuildV1",
        "VsTestV1",
        "VsTestV2",
        "VsTestPlatformToolInstallerV1",
        "WindowsMachineFileCopyV1",
        "WindowsMachineFileCopyV2",
        "XamarinAndroidV1",
        "XamariniOSV2",
        "XamarinTestCloudV1",
        "XcodeV5"
    ],
    "taskResources": [
        "*.ps1",
        "*.psd1",
        "*.psm1",
        "*.sh",
        "*.txt",
        "icon.png",
        "icon.svg",
        "module.json",
        "node_modules",
        "package.json",
        "Strings",
        "task.json",
        "task.loc.json",
        "Tests"
    ]
}
